Engine/Binaries/Win64/UE4Game.exe	2018-11-01T01:00:27.519Z
Engine/Binaries/ThirdParty/Oculus/OVRPlugin/OVRPlugin/Win64/OVRPlugin.dll	2018-04-18T22:41:05.438Z
Engine/Binaries/ThirdParty/NVIDIA/NVaftermath/Win64/GFSDK_Aftermath_Lib.x64.dll	2018-04-18T22:41:05.091Z
Engine/Binaries/ThirdParty/Windows/DirectX/x64/WinPixEventRuntime.dll	2018-04-18T22:41:13.336Z
Engine/Binaries/ThirdParty/PhysX3/Win64/VS2015/PxFoundationPROFILE_x64.dll	2018-04-18T22:41:10.623Z
Engine/Binaries/ThirdParty/PhysX3/Win64/VS2015/PxPvdSDKPROFILE_x64.dll	2018-04-18T22:41:10.645Z
Engine/Binaries/ThirdParty/PhysX3/Win64/VS2015/PhysX3PROFILE_x64.dll	2018-04-18T22:41:10.600Z
Engine/Binaries/ThirdParty/PhysX3/Win64/VS2015/PhysX3CookingPROFILE_x64.dll	2018-04-18T22:41:10.582Z
Engine/Binaries/ThirdParty/PhysX3/Win64/VS2015/PhysX3CommonPROFILE_x64.dll	2018-04-18T22:41:10.560Z
Engine/Binaries/ThirdParty/PhysX3/Win64/VS2015/APEX_ClothingPROFILE_x64.dll	2018-04-18T22:41:10.192Z
Engine/Binaries/ThirdParty/PhysX3/Win64/VS2015/APEX_LegacyPROFILE_x64.dll	2018-04-18T22:41:10.466Z
Engine/Binaries/ThirdParty/PhysX3/Win64/VS2015/ApexFrameworkPROFILE_x64.dll	2018-04-18T22:41:10.489Z
Engine/Binaries/ThirdParty/PhysX3/Win64/VS2015/NvClothPROFILE_x64.dll	2018-04-18T22:41:10.512Z
Engine/Binaries/ThirdParty/Ogg/Win64/VS2015/libogg_64.dll	2018-04-18T22:41:05.464Z
Engine/Binaries/ThirdParty/Vorbis/Win64/VS2015/libvorbis_64.dll	2018-04-18T22:41:13.287Z
Engine/Binaries/ThirdParty/Vorbis/Win64/VS2015/libvorbisfile_64.dll	2018-04-18T22:41:13.296Z
Engine/Binaries/ThirdParty/OpenVR/OpenVRv1_0_10/Win64/openvr_api.dll	2018-04-18T22:41:05.582Z
TestSidescroller.exe	2018-11-06T06:23:55.564Z
